hw4.utf8
…
Each chick should have twelve weight measurements. Use the dplyr package to identify how many measurements are there for each chick. Extract a subset of the data for all chicks with complete information, name the data set complete, and print the first 3 rows. (Hint: you might want to use mutate to introduce a helper variable consisting of the number of observations)

# Create num_observations for each chick
complete = ChickWeight %>% group_by(Chick) %>% mutate(num_observations = n()) %>% ungroup()

# Get rows with num_observations of 12
complete = complete[complete$num_observations == 12, ]

# Display results
print(complete, n=3)

## # A tibble: 540 x 5
##   weight  Time Chick Diet  num_observations
##    <dbl> <dbl> <ord> <fct>            <int>
## 1     42     0 1     1                   12
## 2     51     2 1     1                   12
## 3     59     4 1     1                   12
## #  with 537 more rows
…
# Assign colunmn to vector
complete$day_0_weight = weights

# Get difference in day 0 weight
complete = complete %>% group_by(Chick) %>% mutate(weightgain = weight - day_0_weight) %>% ungroup()

# Remove temp columns
complete$day_0_weight = NULL

# Display results
print(complete, n=3)

## # A tibble: 540 x 6
##   weight  Time Chick Diet  num_observations weightgain
##    <dbl> <dbl> <ord> <fct>            <int>      <dbl>
## 1     42     0 1     1                   12          0
## 2     51     2 1     1                   12          9
## 3     59     4 1     1                   12         17
## #  with 537 more rows
…
